%YAML 1.1
%TAG !u! tag:unity3d.com,2011:
--- !u!114 &11400000
MonoBehaviour:
  m_ObjectHideFlags: 0
  m_CorrespondingSourceObject: {fileID: 0}
  m_PrefabInstance: {fileID: 0}
  m_PrefabAsset: {fileID: 0}
  m_GameObject: {fileID: 0}
  m_Enabled: 1
  m_EditorHideFlags: 0
  m_Script: {fileID: 11500000, guid: 70619afbd1fdb7f439ef950fc1570aa5, type: 3}
  m_Name: Boss Orange
  m_EditorClassIdentifier: Assembly-CSharp:KnifeHitClone:LevelProfile
  LevelType: 1
  BossSettings:
    Name: Orange
    Reward: {fileID: 11400000, guid: 9bc26db12ceaea24aba94fb7b2be5d3b, type: 2}
  Knives: 8
  Target: {fileID: 11400000, guid: 2fb63312a981ecd46b5c994624fe9a4d, type: 2}
  RotationCurve:
    serializedVersion: 2
    m_Curve:
    - serializedVersion: 3
      time: 0
      value: 1
      inSlope: -0.14081275
      outSlope: -0.14081275
      tangentMode: 0
      weightedMode: 0
      inWeight: 0
      outWeight: 0.05849607
    - serializedVersion: 3
      time: 10.012329
      value: 1
      inSlope: -0.17875455
      outSlope: -0.17875455
      tangentMode: 0
      weightedMode: 0
      inWeight: 0.062119666
      outWeight: 0
    m_PreInfinity: 2
    m_PostInfinity: 1
    m_RotationOrder: 4
  KnivesOnLevel:
    Min: 3
    Max: 5
