%YAML 1.1
%TAG !u! tag:unity3d.com,2011:
--- !u!114 &11400000
MonoBehaviour:
  m_ObjectHideFlags: 0
  m_CorrespondingSourceObject: {fileID: 0}
  m_PrefabInstance: {fileID: 0}
  m_PrefabAsset: {fileID: 0}
  m_GameObject: {fileID: 0}
  m_Enabled: 1
  m_EditorHideFlags: 0
  m_Script: {fileID: 11500000, guid: 70619afbd1fdb7f439ef950fc1570aa5, type: 3}
  m_Name: Level 8
  m_EditorClassIdentifier: Assembly-CSharp:KnifeHitClone:LevelProfile
  LevelType: 0
  BossSettings:
    Name: 
    Reward: {fileID: 0}
  Knives: 8
  Target: {fileID: 11400000, guid: 9c88b511f829e1c43ab5679880096003, type: 2}
  RotationCurve:
    serializedVersion: 2
    m_Curve:
    - serializedVersion: 3
      time: 0
      value: 1
      inSlope: -0.0007296112
      outSlope: -0.0007296112
      tangentMode: 34
      weightedMode: 0
      inWeight: 0
      outWeight: 0.33333334
    - serializedVersion: 3
      time: 2.5954092
      value: 0.99810636
      inSlope: -0.017568994
      outSlope: -0.017568994
      tangentMode: 0
      weightedMode: 0
      inWeight: 0.42348716
      outWeight: 0.33333334
    - serializedVersion: 3
      time: 4.0997667
      value: 0.00000027567148
      inSlope: -0.039123695
      outSlope: -0.039123695
      tangentMode: 0
      weightedMode: 0
      inWeight: 0.33333334
      outWeight: 0.0625786
    - serializedVersion: 3
      time: 10
      value: 1
      inSlope: 0.007219806
      outSlope: 0.007219806
      tangentMode: 0
      weightedMode: 0
      inWeight: 0.34283707
      outWeight: 0
    m_PreInfinity: 2
    m_PostInfinity: 2
    m_RotationOrder: 4
  KnivesOnLevel:
    Min: 2
    Max: 5
