%YAML 1.1
%TAG !u! tag:unity3d.com,2011:
--- !u!114 &11400000
MonoBehaviour:
  m_ObjectHideFlags: 0
  m_CorrespondingSourceObject: {fileID: 0}
  m_PrefabInstance: {fileID: 0}
  m_PrefabAsset: {fileID: 0}
  m_GameObject: {fileID: 0}
  m_Enabled: 1
  m_EditorHideFlags: 0
  m_Script: {fileID: 11500000, guid: 7c06e27416738a449b53017b6d185052, type: 3}
  m_Name: LevelList
  m_EditorClassIdentifier: 
  List:
  - {fileID: 11400000, guid: 2c0121a2988da904dbfa87c1e816b355, type: 2}
  - {fileID: 11400000, guid: 742a5a230354f8a438566105e1e65ade, type: 2}
  - {fileID: 11400000, guid: 239058e8ce57cf64cb71571217ac5878, type: 2}
  - {fileID: 11400000, guid: ab70bb3ae6241d64a8d3d14345d8fec9, type: 2}
  - {fileID: 11400000, guid: 3afd3bc7a2432ee4aa93746ff654bb75, type: 2}
  - {fileID: 11400000, guid: 011038d0da3a9ea4d9194edf01678204, type: 2}
  - {fileID: 11400000, guid: d71ab5ba99568a544b5033cd6d41e365, type: 2}
  - {fileID: 11400000, guid: 85282924213760c448189cb2a8566743, type: 2}
  - {fileID: 11400000, guid: a5cf7a80cdefaef4dbd70bdac41b4292, type: 2}
  - {fileID: 11400000, guid: 5079ad96e4951024dafe1df086cad8fe, type: 2}
  - {fileID: 11400000, guid: a5cf7a80cdefaef4dbd70bdac41b4292, type: 2}
  - {fileID: 11400000, guid: c4c41b4cfffcb8543878075117fa34fe, type: 2}
  - {fileID: 11400000, guid: 9cc4e73859d13344180e71514ca89203, type: 2}
  - {fileID: 11400000, guid: 67087dadca1d9274996ab605e4918cf8, type: 2}
  - {fileID: 11400000, guid: 6a61f69074a97f04e8d6e34cf30787f2, type: 2}
  - {fileID: 11400000, guid: 3b30384b8c953fc49ac3b43c512bfe11, type: 2}
