%YAML 1.1
%TAG !u! tag:unity3d.com,2011:
--- !u!114 &11400000
MonoBehaviour:
  m_ObjectHideFlags: 0
  m_CorrespondingSourceObject: {fileID: 0}
  m_PrefabInstance: {fileID: 0}
  m_PrefabAsset: {fileID: 0}
  m_GameObject: {fileID: 0}
  m_Enabled: 1
  m_EditorHideFlags: 0
  m_Script: {fileID: 11500000, guid: 139a3bffe8b9c9a4db98a62ffe90ab8e, type: 3}
  m_Name: NotificationList
  m_EditorClassIdentifier: 
  ChannelSettings:
    ChannelId: KnifeHitClone
    ChannelName: KHc Name
    ChannelDescription: KHc Desc
    VibrationPattern: 320000000000000032000000000000003200000000000000
  NeedReminder: 1
  ReminderNotify:
    Days: 0
    Hours: 0
    Min: 10
    Title: KnifeHit Clone
    Text: "\u0412\u044B \u0434\u0430\u0432\u043D\u043E \u043D\u0435 \u0437\u0430\u0445\u043E\u0434\u0438\u043B\u0438,
      \u043C\u044B \u0441\u043A\u0443\u0447\u0430\u0435\u043C"
