%YAML 1.1
%TAG !u! tag:unity3d.com,2011:
--- !u!114 &11400000
MonoBehaviour:
  m_ObjectHideFlags: 0
  m_CorrespondingSourceObject: {fileID: 0}
  m_PrefabInstance: {fileID: 0}
  m_PrefabAsset: {fileID: 0}
  m_GameObject: {fileID: 0}
  m_Enabled: 1
  m_EditorHideFlags: 0
  m_Script: {fileID: 11500000, guid: 7b97363b976e7f74ca5b5ea563693c1a, type: 3}
  m_Name: Orange
  m_EditorClassIdentifier: 
  TargetTransform: {fileID: 942361313619669502, guid: 22bb5af2dad09cc40a591d247d348f23, type: 3}
  DestroyTransform: {fileID: 942361313619669502, guid: 2305da9a2898fd146be8e1e213d6c357, type: 3}
